cluster annotation and subsetting of T cells and fibroblasts
…
calculate marker genes

Idents(seurat) <- seurat$RNA_snn_res.0.25

all.markers <- FindAllMarkers(seurat, only.pos = TRUE, min.pct = 0.25, logfc.threshold = 0.25, test.use = "wilcox")
all.markers %>%
  group_by(cluster) %>%
  top_n(n = 30, wt = avg_log2FC) -> markers.top30
markers.top30

# A tibble: 720 × 7
# Groups:   cluster [24]
   p_val avg_log2FC pct.1 pct.2 p_val_adj cluster gene                      
   <dbl>      <dbl> <dbl> <dbl>     <dbl> <fct>   <chr>                     
 1     0       6.40 0.996 0.038         0 0       ENSMUSG00000036353.P2ry12 
 2     0       5.74 0.977 0.033         0 0       ENSMUSG00000051504.Siglech
 3     0       6.20 0.995 0.064         0 0       ENSMUSG00000040229.Gpr34  
 4     0       5.81 0.979 0.051         0 0       ENSMUSG00000054675.Tmem119
 5     0       5.66 0.999 0.075         0 0       ENSMUSG00000023992.Trem2  
 6     0       6.65 0.941 0.023         0 0       ENSMUSG00000015852.Fcrls  
 7     0       5.81 1     0.1           0 0       ENSMUSG00000052336.Cx3cr1 
 8     0       5.22 0.999 0.11          0 0       ENSMUSG00000024621.Csf1r  
 9     0       6.03 0.907 0.039         0 0       ENSMUSG00000036362.P2ry13 
10     0       5.54 0.898 0.037         0 0       ENSMUSG00000031613.Hpgd   
# ℹ 710 more rows
…
