Endothelial cells
…
run marker genes

Idents(seurat) <- seurat$RNA_snn_res.0.1
all.markers <- FindAllMarkers(seurat, only.pos = TRUE, min.pct = 0.25, logfc.threshold = 0.25, test.use = "wilcox")
all.markers %>%
  group_by(cluster) %>%
  top_n(n = 20, wt = avg_log2FC) -> markers.top20
markers.top20

# A tibble: 120 × 7
# Groups:   cluster [6]
       p_val avg_log2FC pct.1 pct.2 p_val_adj cluster gene                      
       <dbl>      <dbl> <dbl> <dbl>     <dbl> <fct>   <chr>                     
 1 0               1.48 0.919 0.556 0         0       ENSMUSG00000030235.Slco1c1
 2 0               1.69 0.734 0.437 0         0       ENSMUSG00000066842.Hmcn1  
 3 0               1.54 0.712 0.423 0         0       ENSMUSG00000000805.Car4   
 4 0               1.99 0.984 0.697 0         0       ENSMUSG00000058297.Spock2 
 5 0               2.36 0.949 0.663 0         0       ENSMUSG00000061353.Cxcl12 
 6 0               1.66 0.749 0.47  0         0       ENSMUSG00000028780.Sema3c 
 7 0               1.67 0.687 0.434 0         0       ENSMUSG00000041313.Slc7a1 
 8 0               1.72 0.911 0.684 0         0       ENSMUSG00000005533.Igf1r  
 9 3.94e-283       2.20 0.487 0.184 1.19e-278 0       ENSMUSG00000028655.Mfsd2a 
10 9.17e-272       1.79 0.61  0.345 2.76e-267 0       ENSMUSG00000022797.Tfrc   
# ℹ 110 more rows
…
