FIbroblasts D20 Naive
…
## run marker genes

Idents(seurat) <- seurat$clusterlabel

all.markers <- FindAllMarkers(seurat, only.pos = TRUE, min.pct = 0.25, logfc.threshold = 0.25, test.use = "wilcox")
all.markers %>%
  group_by(cluster) %>%
  top_n(n = 30, wt = avg_log2FC) -> markers.top30
markers.top30

# A tibble: 150 × 7
# Groups:   cluster [5]
   p_val avg_log2FC pct.1 pct.2 p_val_adj cluster       gene                      
   <dbl>      <dbl> <dbl> <dbl>     <dbl> <fct>         <chr>                     
 1     0       6.58 0.938 0.04          0 Fibroblasts 1 ENSMUSG00000027737.Slc7a11
 2     0       5.28 0.949 0.132         0 Fibroblasts 1 ENSMUSG00000039323.Igfbp2 
 3     0       4.99 0.914 0.108         0 Fibroblasts 1 ENSMUSG00000005360.Slc1a3 
 4     0       6.58 0.787 0.011         0 Fibroblasts 1 ENSMUSG00000013584.Aldh1a2
 5     0       5.64 0.714 0.035         0 Fibroblasts 1 ENSMUSG00000040055.Gjb6   
 6     0       5.41 0.718 0.042         0 Fibroblasts 1 ENSMUSG00000046352.Gjb2   
 7     0       9.31 0.671 0.004         0 Fibroblasts 1 ENSMUSG00000024650.Slc22a6
 8     0       7.54 0.658 0.008         0 Fibroblasts 1 ENSMUSG00000029843.Slc13a4
 9     0       5.20 0.695 0.048         0 Fibroblasts 1 ENSMUSG00000044349.Snhg11 
10     0       5.79 0.67  0.027         0 Fibroblasts 1 ENSMUSG00000039004.Bmp6   
# ℹ 140 more rows
…
