T cell annotation
…
run marker genes

Idents(seurat) <- seurat$RNA_snn_res.0.6
all.markers <- FindAllMarkers(seurat, only.pos = TRUE, min.pct = 0.25, logfc.threshold = 0.25, test.use = "wilcox")
all.markers %>%
  group_by(cluster) %>%
  top_n(n = 40, wt = avg_log2FC) -> markers.top20
markers.top20

# A tibble: 720 × 7
# Groups:   cluster [18]
   p_val avg_log2FC pct.1 pct.2 p_val_adj cluster gene                      
   <dbl>      <dbl> <dbl> <dbl>     <dbl> <fct>   <chr>                     
 1     0      0.926 0.988 0.604         0 0       ENSMUSG00000053044.Cd8b1  
 2     0      1.24  0.784 0.408         0 0       ENSMUSG00000058216.Gstp3  
 3     0      0.888 0.947 0.582         0 0       ENSMUSG00000042385.Gzmk   
 4     0      0.834 0.749 0.389         0 0       ENSMUSG00000032231.Anxa2  
 5     0      1.50  0.511 0.183         0 0       ENSMUSG00000029658.Wdr95  
 6     0      1.23  0.559 0.235         0 0       ENSMUSG00000032380.Dapk2  
 7     0      1.75  0.987 0.663         0 0       ENSMUSG00000022584.Ly6c2  
 8     0      1.29  0.527 0.217         0 0       ENSMUSG00000114937.Gm30054
 9     0      1.38  0.501 0.193         0 0       ENSMUSG00000038304.Cd160  
10     0      1.04  0.855 0.553         0 0       ENSMUSG00000015437.Gzmb   
# ℹ 710 more rows
…
differences between Tcf7+ and Id2+ cells

all.markers <- FindAllMarkers(seurat_sub, only.pos = T, min.pct = 0.25, logfc.threshold = 0.25, test.use = "wilcox")
all.markers %>%
  group_by(cluster) %>%
  top_n(n = 40, wt = avg_log2FC) -> markers.top20
markers.top20

# A tibble: 80 × 7
# Groups:   cluster [2]
       p_val avg_log2FC pct.1 pct.2 p_val_adj cluster gene                     
       <dbl>      <dbl> <dbl> <dbl>     <dbl> <fct>   <chr>                    
 1 0               3.46 0.858 0.178 0         Id2+    ENSMUSG00000048521.Cxcr6 
 2 0               3.92 0.942 0.287 0         Id2+    ENSMUSG00000001025.S100a6
 3 0               3.38 0.84  0.284 0         Id2+    ENSMUSG00000068220.Lgals1
 4 0               3.73 0.89  0.378 0         Id2+    ENSMUSG00000029322.Plac8 
 5 0               3.33 0.967 0.632 0         Id2+    ENSMUSG00000035042.Ccl5  
 6 6.45e-304       4.08 0.78  0.134 1.95e-299 Id2+    ENSMUSG00000001020.S100a4
 7 3.65e-279       4.20 0.718 0.064 1.10e-274 Id2+    ENSMUSG00000042385.Gzmk  
 8 6.60e-249       3.92 0.713 0.125 1.99e-244 Id2+    ENSMUSG00000026358.Rgs1  
 9 2.88e-233       3.20 0.703 0.119 8.68e-229 Id2+    ENSMUSG00000050232.Cxcr3 
10 3.71e-223       4.95 0.649 0.09  1.12e-218 Id2+    ENSMUSG00000015437.Gzmb  
# ℹ 70 more rows
…
